
            -= H A C K E R S =-

                           Issue #8,  File #9 of 9

                                   The End

        Hackers Magazine                    Next issue will be out on time.
        *  *  *  *  *  *              Until then, remember to link the Hackers
         317 MLKing BLVD              home page.  Keep those letters coming,
        Newark, NJ  07103             and keep your eyes on this space.  A lot
         (201) 623-2510               of good things to come.
   mrs3691@megahertz.njit.edu
http://people.delphi.com/scanlonr

              And where ever you hack, may the ethic be with you!

