  PHREAKER`S PARADISE AND PHUN CLUB
        ARE PROUD TO PRESENT
  THE REAL INFO`S ABOUT BLUE BOXING
     IN EUROPE & OTHER COUTRIES!
            VERSION 1.01
      [UPDATED AND IMPROVED !]

--------------------------------------
HANNOVER, UNITED GERMANY!  [08-05-91!]
--------------------------------------

HELLO PHREAKS AROUND THE GLOBE,
SINCE IN EUROPE NEARLY ALL PEOPLE
USING THE BLUEBOX TO CALL WORLDWIDE
FOR FREE, WE THINKING NOW IT`S THE
RIGHT TIME TO TALK ABOUT NEW FEATURES
AND OTHER COUNTRIES....

---------------------------------------
  THIS LITTLE TEXT CONTAINS SOMETHING
                 ABOUT
          *** BLUEBOXING! ***
---------------------------------------
---------------> MENU! <---------------
---------------------------------------
STORY, HOW I HEARD ABOUT BB!       -GJ-
WHAT CAN I DO WITH A BLUEBOX ?     -SE-
NEEDED CCITT VERSION 5-FREQUENCIES -GJ-
ABOUT GJ`S BLUEBOX-SYSTEM V1&V2    -SE-
WHAT MUST I DO, TO DIAL ANY #`S ?! -GJ-
WHICH COUTRIES CAN BLUEBOXING ?    -SE-
HOW SAVE IS BLUEBOXING ?           -GJ-
WHY, WE WROTE THE TEXT ABOUT BB -GJ&SE-
LAST WORDS ABOUT OUR TEXT !        -GJ-
ABOUT US                        -GJ&SE-
SOME INFOS WHAT WE PLAN IN THE
FUTURE, AND HOW YOU CAN CONTACT
US [!?]                         -GJ&SE-
---------------------------------------
    GJ - SHORT CUT FOR - GURU JOSH -
    SE - SHORT CUT FOR -STONE EATER-
---------------------------------------
BTW: WE SEARCHING MEMBERS TO FORM A NEW
---> PHREAKER GROUP IN GERMANY AND HIHI
---> POSSIBLE VERY VERY SOON IN OTHER
---> COUNTRIES, ALSO LEAVE US A MSG!?
---------------------------------------
***************************************
---------------------------------------
 - STORY!, HOW I HEARD ABOUT BBoxing -
---------------------------------------
SOME MONTHS AGO, A FRIEND FROM SPAIN
CALLED ME IN THE EVENING AND TOLD ME
SOMETHING ABOUT A WORKING BLUEBOX
AND HE SAID: I CALL FOR FREE NOW....
AFTER, I ASK THIS DUDE,
IF HE CAN EXPLAIN: HOW IT WORKS ?
HE TOLD ME, I USE A PROGRAMM ON A
ATARI-ST (HAHA) I ENTER THE NUMBER IN
A SPECIAL FORMAT AND AFTER I COMPLETT
THE NUMBER, I MUST CALL A FRIEND OR
ANOTHER NUMBER HERE IN SPAIN, AND I
SEND SOME TONES (FREQUENCIES) !
AFTER THAT, I CAN CALL WORLDWIDE FOR
FREE....
THIS INFO WAS GIVEN BY MY FRIEND: PACO
IN SPAIN (THANXX FOR IT!) - I GOT THIS
INFO IN THE LAST DAYS OF 1990 AND
I TRIED NOW, SOMETHING TO CALL HERE
IN EUROPE FOR FREE, BCOZ. A FEW DAY`S
AFTER THE CALL FROM MY FRIEND, THE
BLUEBOX DIED IN SPAIN, AND I LOST THE
CONTACT, BUT SOME DAY`S LATER ANOTHER
FRIEND, NOW IN GERMANY TOLD ME, THAT
A FRIEND FROM HIM, CALLED ANY
TOLL-FREE NUMBER, VIA SATELLITE AND
HE CAN CALL WORLDWIDE FOR FREE WITH
A REALLY GOOD LINE... NOW, I KNOWED
100 % IT`S POSSIBLE TO CALL FOR FREE
AROUND THE GLOBE, SIMPLE BY USING AFEW
FREQUENCIES AND SO, I TRIED TO FIND
OUT, WHICH FRQUENCIES ARE NEEDED...
I VISITED SOME HACKER`S LOCAL IN MY
CITY, AND ASK SOMETHING ABOUT THE
PHONE-SYSTEM'S AND I HEARD SOMETHING
ABOUT TRUNK'S, AND BEEP / KERCHUNK`S
BUT I KNOWED NOTHING ABOUT IT, ONLY
THAT IT WORK`S YEAR`S AGO IN THE USA!
BUT I GOT NO INFO`S, THAT IT`S
POSSIBLE TO USE IN EUROPE TOO.
I TALKED ALSO, WITH A FRIEND OF MINE
IN BELGIUM AND HE TOLD ME SOMETHING
ABOUT THE PHONE-SYSTEM`S (THANXX!)
I HEARD ABOUT CCITT Vx-5, R1-2 ETC
SO I GOT MORE AND MORE INFO`S AND IN
THE END OF JANUARY, 1991! I HEARD IN
THE LINE THE FIRST: BEEP, KERCHUNK!
SOME DAY`S LATER, I HEARD: TWO
HOW TO DIAL AFTER YOU SEIZED A TRUNK ?
ALSO, I ASKED AGAIN SOME FRIEND`S,
HOW TO DIAL IN THE INTERNATIONAL
(OPERATOR) SYSTEM (?)
A GUY IN SOUTH OF GERMANY! TOLD ME
SOME WEEK`S LATER SOMETHING ABOUT
DIALING WITH A BLUEBOX...

TODAY, I WROTE ALLREADY A BLUEBOX
FOR DIFFERENT COUNTRIE`S ON THREE
COMPUTER`S.... - ALSO, ON AMIGA,
ATARI-ST AND MY BEST BLUEBOX ON
THE OLD COMMODORE 64! - WORKS 100%
I MUST NEVER DIAL TWO TIME`S THE SAME
NUMBER, TO REACH ANYBODY... - AND I
CAN DIAL MUCH FASTER AS ALL THE OTHER
BLUEBOX`S ALLREADY PUBLISHED IN THE
COMPUTER-SCENE!

AT THE MOMENT I WORK ON A PORTABLE
AND ALL NEEDED FREQUENCIES TO USE THE
AND ALL NEEDED FREQUENCIES TO USE THE
BLUEBOX WORLDWIDE...
ALSO, COMING SOON.....
                          -GURU JOSH!-
--------------------------------------
**************************************
--------------------------------------
  - WHAT CAN I DO WITH A BLUEBOX ? -
--------------------------------------
WELL, YOU CAN DIAL NEARLY ALL NUMBER`S
WORLDWIDE! - YOU CAN GET UN-LISTED
NUMBER`S FROM ANY COUNTRY AND YOU CAN
DIAL WITH OPERATOR STATUS (REAL FUNNY)

YOU`LL KNOW: HOW TO DO THAT ?
REALLY SIMPLE, I`LL TRY TO EXPLAIN
YOU, HOW TO DO THAT!?!

IF YOU PLAN, TO USE US-OPERATOR`S !
PLEASE, READ THE OTHER NICE FILE`S
AVAILABLE AROUND THE GLOBE! IN ALL
GOOD P/H/A-BOARD`S...
ABOUT: HOW TO USE US-OPERATOR`S!

       - SEIZING A THRUNK -
(WRITTEN FOR PHREAKS FROM GERMNAY)
----------------------------------
FOR CALLING VIA:      FREQUENCIES:
----------------------------------
ALGERIA                    2000 Hz
ARGENTINA                  3825 Hz
AUSTRALIA              600& 750 Hz
                      (SEPERATE)
AUSTRIA                    2280 Hz
BAHAMAS                    2600 Hz
BANGLADESH                 3825 Hz
BRAZIL                     3825 Hz
BURUNDI                    3825 Hz
CAMEROON                   3825 Hz
CANADA                     2600 Hz
CHILE                      3825 Hz
CUBA                  2100/3825 Hz
CYPRUS                     3825 Hz
CZECHOSLOVAKIA             2280 Hz
DENMARK               3000/3825 Hz
DOMINICAN REP.             2600 Hz
FIJI                       3825 Hz
FRANCE                2280/3850 Hz
GHANA                      3825 Hz
HUNGARY               2280/3825 Hz
INDIA                      2400 Hz
IRAQ                       3825 Hz
(ONLY, WHEN YOU FIND A NUMBER AFTER
 THE GULF-WAR IN 1991 - HAHA!)
IRELAND               2040/2400 Hz
                  COMPOUND 2280 Hz
ISRAEL                     3850 Hz
ITALY                 2040/2400 Hz
               COMPOUND & SEPERATE
JAMAICA                    2600 Hz
JORDAN                     3825 Hz
KENIA                 2040/2400 Hz
KOREA                      3825 Hz
LIBERIA                    3825 Hz
LUXEMBOURG                 3825 Hz
MADAGASCAR                 2280 Hz
MOROCCO                    2280 Hz
MOZAMBIQUE                 2400 Hz
                       500/  20 Hz
                           1625 Hz
                           3350 Hz
                           3825 Hz
NIPPON                     2600 Hz
NORWAY                     2400 Hz
NEW ZEALAND            600/ 750 Hz
                           2280 Hz
OMAN                       3825 Hz
PERU                SOME DIFFERENT
                     FREQUENCIES!
PHILIPINES                 3825 Hz
                      OLD: 2600 Hz
POLAND                     2280 Hz
                           3825 Hz
                       500/  20 Hz
                           2100 Hz
PORTUGAL                   3825 Hz
ROMANA                     3825 Hz
                        OR 2280 Hz
SOUTH AFRICA           600/ 750 Hz
                 SEPERATE  2280 Hz
SPAIN                      2500 Hz
SURINAM                    3825 Hz
SWEDEN                     2400 Hz
SWITZERLAND                3000 Hz
SYRIA                      3825 Hz
TANZANIA                   3825 Hz
THAILAND                   2400 Hz
UGANDA                2040/2400 Hz
UNITED KINGDOM         600/ 750 Hz
                 SEPERATE  2280 HZ
USA                        2600 Hz
USSR                  1200/1600 Hz
       SEPERATE & COMPOUND 2600 Hz
YUGOSLAVIA                 2280 Hz
ZAMBIA                     3825 Hz
--------------------------------------
FROM CCITT Q - RECOMMENDATIONS.
VOL. VI - [REF.I] SUPPLEMENT No. 3
FASCICLE VI.I
COURTESY OF ITU-CCITT - GENEVA
--------------------------------------
IF YOU NEED ANY INFO`S ABOUT THE
TELEPHONE-SYSTEM`S ABOVE ...
(TIMING, ETC ETC!)
FEEL FREE TO CONTACT ME, VIA
NaPE/WPE WRITE TO: STONE EATER

                        -STONE EATER!-
--------------------------------------
**************************************
--------------------------------------
NEEDED CCITT - FUNCTIONS (FREQUENCIES)
--------------------------------------
FUNC.- FREQUENCE Hz - SHORT INFO !
--------------------------------------
1    -   700 &  900 - TO DIAL "1"
2    -   700 & 1100 - TO DIAL "2"
3    -   900 & 1100 - TO DIAL "3"
4    -   700 & 1300 - TO DIAL "4"
5    -   900 & 1300 - TO DIAL "5"
6    -  1100 & 1300 - TO DIAL "6"
7    -   700 & 1500 - TO DIAL "7"
8    -   900 & 1500 - TO DIAL "8"
9    -  1100 & 1500 - TO DIAL "9"
0    -  1300 & 1500 - TO DIAL "0"
--------------------------------------
C.11 -   700 & 1700 - INWARD OPERATOR!
C.12 -   900 & 1700 - DELAY  OPERATOR!
KP1  -  1100 & 1700 - TERMINAL CALL!
KP2  -  1300 & 1700 - TRANSIT  CALL!
ST   -  1500 & 1700 - END OF PULSING!
--------------------------------------
DHLS -         1850 - DISABLE HOLDLINE
                         SWITCHING!
--------------------------------------
IF YOU NEED ANY INFOS OR FREQUENCIES
CONTACT ME, WRITE A NaPE/WPE MESSAGE
TO: STONE EATER      (ONLY ANARCHY !)

ALSO, WE USING MY BLUEBOX-SYSTEM
WITH "SPECIAL CODES" FOR DIALING!!

                          -GURU JOSH!-
--------------------------------------
**************************************
--------------------------------------
ABOUT GURU JOSH`S BLUEBOX-SYSTEM V1&2!
--------------------------------------
  --> FIRST I`LL TRY TO EXPLAIN: <--
--------------------------------------
WHICH CODE`S WE`RE USING TO DIAL ANY
NUMBER AROUND THE GLOBE.....!

0,1-9 NORMAL KEYS FOR THE PHONENUMBER
A - KP1   - LOCAL  CALLS
B - KP2   - GLOBAL CALLS
C - ST    - END OF PULSING
D - C.11  - LOCAL  OPERATORS (INWARD)
E - C.12  - GLOBAL OPERATORS (DELAY!)
H - DHLS  - DISABLE HOLDLINE  (ONLY)
            SWITCH!    (ON SATELLITE!)
T - TRUNK - TO GET A TRUNK, READ THE
            INFO`S ABOVE (FREQUENCE)
/ - HOLD! - SHORT PAUSE (60 MS)

                        -STONE EATER!-
--------------------------------------
**************************************
--------------------------------------
 WHAT I MUST DO, TO DIAL ANY NUMBER ?
--------------------------------------
ALSO, TO DIAL YOUR FRIEND IN THE USA,
CANADA OR ANY OTHER AMERICAN COUNTRY
YOU MUST TYPE:

      T/A-0-202-456-1414-C

TO REACH A COOL NaPE/WPE ANARCHY BBS
OR A FRIEND IN EUROPE,
YOU MUST TYPE:

    T/B-49-0-511-211-0635-C

IF YOU DON`T LIKE A BUSY-SIGNAL SO
YOU HAVE TO DIAL FOR AMERICA:

    T/A-2-703-121-C
          \--> THIS SHOULD BE THE
               AREA-CODE, IN WHICH
                   YOU GOT THE
                  BUSY-SIGNAL !

    T/A-2-703-131-C
              /
             /--> THIS OPERATOR IS
                  FOR DIRECTORY
                  ASSISTANCE....!

FOR MORE 1xx OPERATORS LOOK IN OTHER
AVAILABLE FILES FOR US-DUDES.....

IMPORTANT: DON`T USE A OPERATOR,
---------- IF YOU DON`T KNOW HOW TO
           USE HIM !

BTW: WE FOUND NO-WAY: HOW TO REACH THE
----> 115XX - OPERATOR`S IN THE USA!!

IF YOU NEED DIRECTORY ASSISTANCE FOR
ANONTHER COUNTRY WORLDWIDE, TYPE:

   T/B-43-2-D-C  OR  T/B-43-2-E-C

THE LINES ABOVE SHOULD GIVE YA THE
DIRECTORY ASSISTANCE FOR AUSTRIA !
DON`T KNOW, AT THE MOMENT IF YOU CAN
DO OTHER THINGS WITH THE OPERATORS,
BUT YOU CAN CHANGE THE AREA CODE
(FRANCE (33) USED A NICE MUSIC FOR
THE HOLD POSITION!) IF ALL LINES ARE
BUSY!) AND YOU CAN CHANGE THE "2"
BETWEEN "0","1" TO "9" SOMETIMES
YOU GET OTHER OPERATORS... AND
YOU CAN ALLWAYS SWITCH BETWEEN
"D" AND "E" (CODE 11/12) FOR OPERATORS
WE`RE SURE, YOU`LL FIND SOME REALLY
FUNNY OPERATORS, AND IF YOU FIND
SOMETHING OUT, LEAVE US A MESSAGE!

THE NUMBER FOR "DIRECTORY ASSISTANCE"
ARE NORMALLY THE NUMBERS DIALED BY THE
OPERATOR`S (IN GERMANY: 0118 OR 00118)

DON`T FORGET YOU`RE A OTHER OPERATOR!
ALSO, TRY TO BE REALLY A OPERATOR, OR
YOU`LL GET POSSIBLE TROUBLE....

BTW: PLEASE, SEND THE FREQUENCIES
---> BEFORE OR AFTER THE NUMBER YOU
---> DIALED ANSWER!
---> ------------------------------
---> ALSO BEFORE ANYTHING PICK-UP
---> THE PHONE, OR AFTER THAT THING
---> DROPPED THE PHONE...
                          -GURU JOSH!-
--------------------------------------
**************************************
--------------------------------------
 - WHICH COUTRIES CAN BLUEBOXING ?  -
--------------------------------------
ABOUT THE QUESTION ABOVE, NORMALLY ALL
COUNTRIES CAN USE THE BLUEBOX BUT SOME
GOT A DEVICES, (AGAINST BBOXING!) THAT
MEANS YOU CAN`T GET A TRUNK, OR YOU`RE
SIMPLE REALLY FAST BUSTED, AFTER YOU
SEND OUT THE CORRECT FREQUENCIES ....

                        -STONE EATER!-
--------------------------------------
**************************************
--------------------------------------
     - HOW SAVE IS BLUEBOXING ? -
--------------------------------------
THIS SHOULD BE THE IMPORTANT QUESTION
HOW SAVE IS BLUEBOXING, REALLY ?!?
ALSO, IN COUNTRIES WITH A NEW
PHONE-SYSTEM (WITH DIGITAL DIALING!)
LIKE (FOR EXAMPLE) IN THE USA & SINCE
A FEW WEEK`S IN SOME CITY`S IN
SWITZERLAND (AND SOME OTHER COUNTRIES)
YOU`RE BE BUSTED, FASTER AS THAT YOU
CAN GET A ORGASM IN OWN-WORK!
IN COUNTRIES WITH SPECIAL DEVICES,
SOMETIMES SIMPLE CALLED: FILTER
(LIKE IN SPAIN AND GREAT BRITAIN!)
YOU CAN`T USE A BLUEBOX, BCOZ. YOUR
FREQUENCE(S) TO SEIZE A TRUNK, ARE
SIMPLE FILTERED BY THE DEVICES...
NORMALLY, YOU CAN SAVE BLUEBOX, IF YOU
USE A NON-DIGITAL PHONE-SYSTEM!
ALSO, FOR EXAMPLE: IN MOST CITY`S
IN UNITED-GERMANY [WEST] !  BUT TO BE
100% SURE, THAT YOU DON`T USE DIGITAL
LINES, SIMPLE TEST EVERYDAY BEFORE YOU
USE THE BLUEBOX!, IF YOU CAN DIAL WITH
"FREQUENCE TONES", ALSO SOMETIMES
SIMPLE CALLED: "TOUCH-TONES"
BCOZ. AFTER YOU CAN DIAL WITH IT, YOU
ARE EASY TO BUST FOR GERMAN-TELECOM!
OR ANY OTHER PHONE-COMPANY!
ALSO, BE CAREFUL BY USING THE BLUEBOX
OR/AND CARD`S AFTER YOU GOT A DIGITAL
LINE - SYSTEM...
                          -GURU JOSH!-
--------------------------------------
**************************************
--------------------------------------
WHY, WE WROTE THE TEXT ABOUT BBOXING!?
--------------------------------------
WE REALLY HOPE, THAT THIS FILE HELP
YOU ABIT! PLEASE, USE THE BLUEBOX
NOT LONGER ONLY TO CALL STUPID ANY
BOARDS OR TO CALL YOUR FRIEND IN THE
NEXT STREET... THIS MAGIC THING, IS
TO GOOD, TO SAVE ONLY ABIT MONEY,
BCOZ YOU CAN EASY HACK CODES OR SIMPLE
A VMB-SYSTEM (WITHOUT RE-DIALING THE
PBX OR AT&T OR MCI!)
AND HACK THE SHIT CODE! WITH THE BB!
ALSO, TRY TO SAVE IT...
TALK TO ALL OTHER`S: THAT USING A BBOX
IS VERY VERY DANGEROUS LEAVE MAIL`S IN
PD-BOARD`S AND WRITE SOMETHING LIKE:
HOW I WAS CAUGHT BY THE COPS, AFTER
USING THE BLUEBOX! - I THINK THAT CAN
HELP TO HOLD THE TOLL-FREE LINE`S FOR
MORE IMPORTANT CALL`S -> FREE!
POSSIBLE SOME PEOPLE STOPPING HER
ACTIVITIES AFTER A FEW MESSAGE ABOUT
THE THING ABOVE.... [HAHAHAHAHAHAHA!]
SINCE THE GERMAN TV AND SOME PAPER`S
WROTE ABOUT IT, WE CAN BE SURE THAT
ANY COUNTRY WILL TRY TO DO ANYTHING
AGAINST BLUEBOXING... OK, THE TRYS
FROM FRANCE ARE NOT SO GOOD (HAHAHA)
BUT POSSIBLE, THE GERMAN TELECOM
WILL WORK IN THE FUTURE AGAINST
BLUEBOXING, POSSIBLE INSTALLING
ANY DEVICE OR SIMPLE TRY TO TRACE
SOME TOLL-FREE NUMBER`S OR SHIT DUNNO!
BUT WE CAN USE THE TV AND NEWSPAPER
INFO`S TO STOP SOME LAMER...
PLEASE, REMEMBER THE FACTS ABOVE!?
THE FACTS ABOVE!) AND IT SHOULD BE
EASY TO STOP SOME NON-PHREAKER`S!

           -GURU JOSH! & STONE EATER!-
--------------------------------------
**************************************
--------------------------------------
     LAST WORDS ABOUT OUR TEXT!
--------------------------------------
THIS TEXT WAS WRITTEN FOR ALL PEOPLE
SIMPLE CALLING ANY BOARDS, AND DON`T
KNOW, WHAT A BLUEBOX CAN DO OR WHAT
A BLUEBOX REALLY IS....  - ALLWAY`S
REMEMBER: A BLUEBOX IS NOT ONLY A
UNLIMITED CALLING CARD, TO CALL ANY
FRIEND`S IN THE NEXT STREET OR IN THE
NEXT CITY... - BCOZ. NORMALLY YOU PAY
NOTHING OR ONLY A FEW CENTS FOR IT!
SO BETTER USE THE BLUEBOX TO CALL
CALL THE FBI, OR FOR EXAMPLE THE
WHITEHOUSE (OR PENTAGON OR THE NASA ?)
OR ANY NICE COMPUTER, AND THE GUY`S
CAN`T SEE WHICH IS YOUR PHONE-NUMBER!
(YOU CAN USE IT SAVE, ONLY WHEN YOU USE
 A NON-DIGITAL LINE!)
ON THE LITTLE LCD-SCREEN, THE GUY`S
GET ONLY A MESSAGE, LIKE THIS:
THE CALL IS OUT OF RANGE (HAHA)
REALLY FUNNY, IF YOU LIKE TO HACK
CARD`S AND TO SELL THE CARD`S LATER
TO ALL LAMER`S AROUND YOUR CITY!

                          -GURU JOSH!-
--------------------------------------
**************************************
--------------------------------------
 STONE EATER! - ABOUT US - GURU JOSH!
--------------------------------------
STONE EATER: I`M 23 YEARS OLD, AND I
WAS BORN IN SOUTHERN GERMANY!
SINCE 1986, I USE A COMPUTER FIRST
I PLAYED *ONLY* STUPID GAMES!, BEFORE
I VISITED A FRIEND, AND I SAW WHAT I
CAN DO WITH A COMPUTER...
ALSO, I FIRST PROGRAMMED ON A C.64!
AND LATER ON AMIGA (C AND GFA-BASIC!)
SINCE SOME MONTH`S, I ONLY TRY TO SAVE
MONEY, BY USING ILLEGAL PHONE-DEVICES!

SIGNED: STONE EATER
--------------------------------------
GURU JOSH: I`M 22 YEARS OLD, AND I WAS
BORN IN NORTHERN GERMANY!
SINCE 1983, I USING COMPUTER, AND ONLY
1 YEAR AFTER I GOT FROM MY PARENTS A
COMMODORE 64, I LEARNED PROGRAMMING IN
ASSEMBLER, AND USING FREEZER... (HAHA)
IN 1986 A FRIEND OF MINE, CALLED
GANDALF SOUND CRACKINGS 2001 - LEARNED
ME, HOW TO CRACK ANY GAMES... (THANXX)
WITHOUT USING A FREEZER (NOW, ON AMIGA
SOMETIMES NORMAL!)
IN THE END OF 1989 - I QUIT THE C.64
AND STARTED ON AMIGA (I GOT MY FIRST
AMIGA IN 1987, BUT THE FIRST TIME
I ONLY PLAYED GAMES...!) IN DECEMBER
1989 AFTER I VISITED A OLD FRIEND, &
AFTER I CALLED THE FIRST GERMAN AMIGA
BBS, I OPENED MY OWN (THE SECOND IN
GERMANY, BEFORE THE CENTRAL EUROPE
AND OTHER BOARD`S OPENED HER DOOR`S !)
THE BBS WAS CALLED: TECH BBS, AND AFEW
DAY`S, IT WAS A PARANOIMIA BBS BUT
AFTER I GOT TROUBLE WITH SOME PEOPLE
IN PARALAMIA, I QUIT AND OPENED AS
TRISTAR BOARD (WAS A REALLY COOL TIME)
AFTER I GOT AGAIN TROUBLE WITH SOME
SHIT-HEADS IN TRISTAR, I JOINED A NEW
GROUP: CLASSIC (BEFORE THE GROUP WAS
SO KNOWN, LIKE NOW! GOOD TIME TOO...
(GREETS MUST GO TO STALKER AND ZELNIK)
AFTER, I QUIT THE GROUP, I STARTED FOR
STORM, THE FUCKING BEST EVER SEEN!
COOL TIME TOO.. (GREETS MUST FLY`ING
OUT TO: GERD! (CONTACT ME!)!) :-) !
AFTER I QUIT STORM, I WAS IN SOME
OTHER GROUPS, BEFORE I JOINED RAZOR!
IN RAZOR, I WAS THE LONGEST TIME IN
MY LONG CARRIER ON THE AMIGA AND IT
WAS THE BEST GROUP EVER SEEN, BUT
AFTER SOME MONTHS I GOT TROUBLE WITH
THE US-ORIGINAL-SUPPLIER FROM RAZOR!
(ZODACT, HI BRIAN!) I QUIT THE GROUP
AFTER I ALLREADY REJOINED! BUT I STILL
LIKE IT, AND I`LL ALLWAYS REMEMBER
THE GOOD TIME IN THE BEST GROUP,
IN THE FUCKING LAME, STUPID AND
BRAINLESS AMIGA-SCENE BCOZ. TO MANY
PEOPLE CALLING HIMSELF *ELITE*, BUT
NEARLY NOBODY DOESN`T KNOW, WHAT THIS
WORD REALLY MEANS IN THE GOOD OLD DAYS
(SHIT!) - I DON`T LIKE TO HEAR THAT
ALL PEOPLE WITH A MODEM ARE ELITE, AND
THAT YOU MUST ONLY BE A GOOD
MODEM-TRADER TO GET THE RIGHT, TO
CALL YOURSELF: "ELITE!" SO I QUIT
AFTER I SAW ONLY FAKES AROUND IN THE
AMIGA SCENE... NOW, I`M BACK ON MY
GOOD OLD COMMODORE 64 (GREAT!)
GREETS MUST GO TO STRIDER/FAIRLIGHT!
AND ON MY C.64 I WROTE THE BEST
AVAILABLE BLUEBOX, FASTER AND BETTER
AS ALL THE OTHER`S AROUND....
BTW: THE SCHOOL CRIME IS NOT LONGER
---> A AMIGA/PC SOFTWARE SUPPORT BBS!
WE ONLY SUPPORT: P/H/A THING`S, AND
WE ARE STILL IN NPE/WPE
(HI BLACK GUARDIAN!), THG-NET AND
THE ONLY EUROPEAN BBS, SUPPORT`S
NET-666 (HI PUPPET MASTER!)
THAT`S ALL FOR NOW ABOUT MYSELF....
--------------------------------------
**************************************
--------------------------------------
 SOME INFO`S ABOUT OUR PLANS IN THE
 FUTURE & HOW YOU CAN CONTACT US !?
--------------------------------------
WE (GJ & SE) PLAN TO RELEASE A MAG,
LIKE THE CUD, PHRACK OR SO BUT BETTER
WE STILL NEED ALL OUR HELP, PLEASE
SUPPORT US, WITH SOME NOT PUBLISHED
INFO`S, HINT`S OR WHAT EVER CAN BE
INTERESTED FOR A NEW ANARCHY MAG!
(ALSO, WE LIKE THEME`S LIKE THIS:
 HOW TO HACK XXXX OR HOW TO KILL
 WITHOUT WEAPON`S -> SADDAM ?!)

ALSO, SUPPORT US...

--------------------------------------
>       THE TEXT WAS WRITTEN         <
>           BY GURU JOSH             <
>         AND STONE EATER!           <
>                OF                  <
>       PHREAKER`S PARADISE!         <
>               AND!                 <
>            PHUN CLUB!              <
>                                    <
>  HOW TO GET IN TOUCH, WITH US !?   <
>____________________________________<
>                                    <
> WRITE US A MESSAGE IN THE NaPE/WPE <
> ANARCHY CONFERENCE! (SO YOU CAN BE <
> SURE, WE RECEIVE IT.... !)         <
>____________________________________<
>                                    <
>    SIMPLE WRITE A MESSAGE TO:      <
>   ----------------------------     <
>   "STONE EATER" OR "GURU JOSH"     <
>   ----------------------------     <
>____________________________________<
>                                    <
> OR CALL OUR NEW GERMAN HEADQUARTER <
> ---------------------------------- <
> SCHOOL CRIME: ++49-(0)-511-2110635 <
>____________________________________<
> BTW: YOU CAN`T REACH THE NUMBER    <
> ---- ABOVE, BY USING A BLUEBOX!    <
> ---> WE`RE NOT INTERESTED TO GET   <
> ---> ANY TROUBLE, SO SORRY !!!!    <
>____________________________________<

GREET`S MUST FLY OUT FOR ALL HELP TO
     ALL MY FRIEND`S WORLDWIDE,
          BUT SPECIAL TO:

BLACKOUT               [WEST GERMANY!]
FLETCH                 [BELGIUM!]
FRED                   [WEST GERMANY!]
FRED / MINDBOMB        [WEST GERMANY!]
KEEPER                 [AUSTRALIA!]
LATTICE                [WEST GERMANY!]
LIXOM BAH              [SWEDEN!]
LOWTEC                 [WEST GERMANY!]
MISTER PRESIDENT       [WEST GERMANY!]
NEW DEAL               [WEST GERMANY!]
ONYX                   [WEST GERMANY!]
PACO                   [SPAIN!]
SHADOW WALL            [WEST GERMANY!]
TAIPAN / UFO           [WEST GERMANY!]
WIZLER                 [WEST GERMANY!]
WHITEHEAT              [WEST GERMANY!]

AND TO ALL THE OTHER`S FOR THE SUPPORT
WITH INFO`S AND FOR ALL THE GREAT
HINT`S ABOUT BLUE-BOXING ....

SIGNED IN PEACE: -GURU JOSH!-
Downloaded From P-80 International Information Systems 304-744-2253
